%YAML 1.1
%TAG !u! tag:unity3d.com,2011:
--- !u!64 &8481173874344868536
MeshCollider:
  m_ObjectHideFlags: 0
  m_CorrespondingSourceObject: {fileID: 0}
  m_PrefabInstance: {fileID: 0}
  m_PrefabAsset: {fileID: 0}
  m_GameObject: {fileID: 8841563586310087720}
  m_Material: {fileID: 0}
  m_IsTrigger: 0
  m_Enabled: 1
  serializedVersion: 3
  m_Convex: 1
  m_CookingOptions: 14
  m_Mesh: {fileID: 4300000, guid: 16dacf10b1b994d3cb221a95bbf5d8d4, type: 3}
--- !u!1 &8841563587379031763
GameObject:
  m_ObjectHideFlags: 0
  m_CorrespondingSourceObject: {fileID: 0}
  m_PrefabInstance: {fileID: 0}
  m_PrefabAsset: {fileID: 0}
  serializedVersion: 6
  m_Component:
  - component: {fileID: 8841563587379031762}
  m_Layer: 0
  m_Name: LeftTop
  m_TagString: Untagged
  m_Icon: {fileID: 0}
  m_NavMeshLayer: 0
  m_StaticEditorFlags: 0
  m_IsActive: 1
--- !u!4 &8841563587379031762
Transform:
  m_ObjectHideFlags: 0
  m_CorrespondingSourceObject: {fileID: 0}
  m_PrefabInstance: {fileID: 0}
  m_PrefabAsset: {fileID: 0}
  m_GameObject: {fileID: 8841563587379031763}
  m_LocalRotation: {x: 0, y: 0, z: 0, w: 1}
  m_LocalPosition: {x: -4.55, y: 0, z: -0.5}
  m_LocalScale: {x: 1, y: 1, z: 1}
  m_Children:
  - {fileID: 8841563586310256650}
  m_Father: {fileID: 0}
  m_RootOrder: 0
  m_LocalEulerAnglesHint: {x: 0, y: 0, z: 0}
--- !u!1001 &8841563586310120074
PrefabInstance:
  m_ObjectHideFlags: 0
  serializedVersion: 2
  m_Modification:
    m_TransformParent: {fileID: 8841563587379031762}
    m_Modifications:
    - target: {fileID: 100000, guid: 16dacf10b1b994d3cb221a95bbf5d8d4, type: 3}
      propertyPath: m_Name
      value: fence9fbx
      objectReference: {fileID: 0}
    - target: {fileID: 400000, guid: 16dacf10b1b994d3cb221a95bbf5d8d4, type: 3}
      propertyPath: m_LocalPosition.x
      value: 0.505
      objectReference: {fileID: 0}
    - target: {fileID: 400000, guid: 16dacf10b1b994d3cb221a95bbf5d8d4, type: 3}
      propertyPath: m_LocalPosition.y
      value: 0
      objectReference: {fileID: 0}
    - target: {fileID: 400000, guid: 16dacf10b1b994d3cb221a95bbf5d8d4, type: 3}
      propertyPath: m_LocalPosition.z
      value: 0.45
      objectReference: {fileID: 0}
    - target: {fileID: 400000, guid: 16dacf10b1b994d3cb221a95bbf5d8d4, type: 3}
      propertyPath: m_LocalRotation.x
      value: -0
      objectReference: {fileID: 0}
    - target: {fileID: 400000, guid: 16dacf10b1b994d3cb221a95bbf5d8d4, type: 3}
      propertyPath: m_LocalRotation.y
      value: -0
      objectReference: {fileID: 0}
    - target: {fileID: 400000, guid: 16dacf10b1b994d3cb221a95bbf5d8d4, type: 3}
      propertyPath: m_LocalRotation.z
      value: -0
      objectReference: {fileID: 0}
    - target: {fileID: 400000, guid: 16dacf10b1b994d3cb221a95bbf5d8d4, type: 3}
      propertyPath: m_LocalRotation.w
      value: 1
      objectReference: {fileID: 0}
    - target: {fileID: 400000, guid: 16dacf10b1b994d3cb221a95bbf5d8d4, type: 3}
      propertyPath: m_RootOrder
      value: 0
      objectReference: {fileID: 0}
    - target: {fileID: 400000, guid: 16dacf10b1b994d3cb221a95bbf5d8d4, type: 3}
      propertyPath: m_LocalEulerAnglesHint.x
      value: 0
      objectReference: {fileID: 0}
    - target: {fileID: 400000, guid: 16dacf10b1b994d3cb221a95bbf5d8d4, type: 3}
      propertyPath: m_LocalEulerAnglesHint.y
      value: 0
      objectReference: {fileID: 0}
    - target: {fileID: 400000, guid: 16dacf10b1b994d3cb221a95bbf5d8d4, type: 3}
      propertyPath: m_LocalEulerAnglesHint.z
      value: 0
      objectReference: {fileID: 0}
    - target: {fileID: 400000, guid: 16dacf10b1b994d3cb221a95bbf5d8d4, type: 3}
      propertyPath: m_LocalScale.y
      value: 2.025
      objectReference: {fileID: 0}
    - target: {fileID: 2300000, guid: 16dacf10b1b994d3cb221a95bbf5d8d4, type: 3}
      propertyPath: m_Materials.Array.data[0]
      value: 
      objectReference: {fileID: 2100000, guid: a7a2a2512431740a3bab59cfdec88b41, type: 2}
    - target: {fileID: 2300002, guid: 16dacf10b1b994d3cb221a95bbf5d8d4, type: 3}
      propertyPath: m_Materials.Array.data[0]
      value: 
      objectReference: {fileID: 2100000, guid: a7a2a2512431740a3bab59cfdec88b41, type: 2}
    m_RemovedComponents: []
  m_SourcePrefab: {fileID: 100100000, guid: 16dacf10b1b994d3cb221a95bbf5d8d4, type: 3}
--- !u!4 &8841563586310256650 stripped
Transform:
  m_CorrespondingSourceObject: {fileID: 400000, guid: 16dacf10b1b994d3cb221a95bbf5d8d4,
    type: 3}
  m_PrefabInstance: {fileID: 8841563586310120074}
  m_PrefabAsset: {fileID: 0}
--- !u!1 &8841563586310087720 stripped
GameObject:
  m_CorrespondingSourceObject: {fileID: 100002, guid: 16dacf10b1b994d3cb221a95bbf5d8d4,
    type: 3}
  m_PrefabInstance: {fileID: 8841563586310120074}
  m_PrefabAsset: {fileID: 0}
