%YAML 1.1
%TAG !u! tag:unity3d.com,2011:
--- !u!114 &11400000
MonoBehaviour:
  m_ObjectHideFlags: 0
  m_CorrespondingSourceObject: {fileID: 0}
  m_PrefabInstance: {fileID: 0}
  m_PrefabAsset: {fileID: 0}
  m_GameObject: {fileID: 0}
  m_Enabled: 1
  m_EditorHideFlags: 0
  m_Script: {fileID: 11500000, guid: e27548c84c5744803a817baf4bf0b65c, type: 3}
  m_Name: Levelnew03
  m_EditorClassIdentifier: 
  cameraFieView: 60
  CameraPos: {x: 0, y: 15, z: 2.16}
  aimRadius: 2
  LevelName: 
  holeList:
  - position: {x: 0, y: 0, z: 0}
    index: 3
    isCorner: 0
  - position: {x: 4, y: 0, z: 8}
    index: 2
    isCorner: 0
  - position: {x: -4, y: 0, z: 8}
    index: 0
    isCorner: 0
  ballList:
  - {x: 0, y: 0, z: 5}
  - {x: 2, y: 0, z: 8}
  - {x: -2, y: 0, z: 8}
  diskList: []
  BombList:
  - {x: 0, y: 0, z: 3}
  CubeList:
  - position: {x: 1, y: 0, z: 0}
    index: 5
    isCorner: 1
  - position: {x: 1, y: 0, z: 1}
    index: 2
    isCorner: 0
  - position: {x: 1, y: 0, z: 2}
    index: 2
    isCorner: 0
  - position: {x: 1, y: 0, z: 3}
    index: 2
    isCorner: 0
  - position: {x: 1, y: 0, z: 4}
    index: 2
    isCorner: 0
  - position: {x: 1, y: 0, z: 5}
    index: 2
    isCorner: 0
  - position: {x: 1, y: 0, z: 6}
    index: 2
    isCorner: 0
  - position: {x: 1, y: 0, z: 7}
    index: 2
    isCorner: 1
  - position: {x: 2, y: 0, z: 7}
    index: 3
    isCorner: 0
  - position: {x: 3, y: 0, z: 7}
    index: 3
    isCorner: 0
  - position: {x: 4, y: 0, z: 7}
    index: 5
    isCorner: 1
  - position: {x: 4, y: 0, z: 9}
    index: 4
    isCorner: 1
  - position: {x: 3, y: 0, z: 9}
    index: 1
    isCorner: 0
  - position: {x: 2, y: 0, z: 9}
    index: 1
    isCorner: 0
  - position: {x: 1, y: 0, z: 9}
    index: 1
    isCorner: 0
  - position: {x: 0, y: 0, z: 9}
    index: 1
    isCorner: 0
  - position: {x: -1, y: 0, z: 9}
    index: 1
    isCorner: 0
  - position: {x: -2, y: 0, z: 9}
    index: 1
    isCorner: 0
  - position: {x: -3, y: 0, z: 9}
    index: 1
    isCorner: 0
  - position: {x: -4, y: 0, z: 9}
    index: 6
    isCorner: 1
  - position: {x: -4, y: 0, z: 7}
    index: 7
    isCorner: 1
  - position: {x: -3, y: 0, z: 7}
    index: 3
    isCorner: 0
  - position: {x: -2, y: 0, z: 7}
    index: 3
    isCorner: 0
  - position: {x: -1, y: 0, z: 7}
    index: 0
    isCorner: 1
  - position: {x: -1, y: 0, z: 6}
    index: 0
    isCorner: 0
  - position: {x: -1, y: 0, z: 5}
    index: 0
    isCorner: 0
  - position: {x: -1, y: 0, z: 4}
    index: 0
    isCorner: 0
  - position: {x: -1, y: 0, z: 3}
    index: 0
    isCorner: 0
  - position: {x: -1, y: 0, z: 2}
    index: 0
    isCorner: 0
  - position: {x: -1, y: 0, z: 1}
    index: 0
    isCorner: 0
  - position: {x: -1, y: 0, z: 0}
    index: 7
    isCorner: 1
  FloorList:
  - position: {x: 0, y: 0, z: 1}
    floorIndex: 0
  - position: {x: 0, y: 0, z: 2}
    floorIndex: 0
  - position: {x: 0, y: 0, z: 3}
    floorIndex: 0
  - position: {x: 0, y: 0, z: 4}
    floorIndex: 0
  - position: {x: 0, y: 0, z: 5}
    floorIndex: 0
  - position: {x: 0, y: 0, z: 6}
    floorIndex: 0
  - position: {x: 0, y: 0, z: 7}
    floorIndex: 0
  - position: {x: 0, y: 0, z: 8}
    floorIndex: 0
  - position: {x: -3, y: 0, z: 8}
    floorIndex: 0
  - position: {x: -2, y: 0, z: 8}
    floorIndex: 0
  - position: {x: -1, y: 0, z: 8}
    floorIndex: 0
  - position: {x: 1, y: 0, z: 8}
    floorIndex: 0
  - position: {x: 2, y: 0, z: 8}
    floorIndex: 0
  - position: {x: 3, y: 0, z: 8}
    floorIndex: 0
  borderSize: {x: 0, y: 0, z: 0}
